Working From Home in Illinois: - 6 Appendix 1. Detailed Methodology
…
ACS 1 year samples for 2019 and 2021 used for weighted population estimates. Military occupations make up less than 0.5% of the labor force and were removed from the graph. Occupation categories are based on broadest aggregated BLS categories used by the BLS.

ACS 1 year samples for 2019 and 2021 used for weighted population estimates. Military occupations make up less than 0.5% of the labor force and were removed from the graph. Occupation categories are based on broadest aggregated BLS categories used by the BLS.

### Proportion of All Workers in each Occupation Type ###
table <- svytable(~YEAR+occ_2dig_labels_d, design = dstrata) 
table <- table %>% 
  as_tibble() %>% 
  group_by(YEAR)%>% 
  mutate(Prop =round(n/sum(n), digits=3)) %>%
  arrange(-n)
table

# A tibble: 46 × 4
# Groups:   YEAR [2]
   YEAR  occ_2dig_labels_d                     n  Prop
   <chr> <chr>                             <dbl> <dbl>
 1 2021  Management                       729581 0.116
 2 2019  Management                       705246 0.109
 3 2019  Office & Administration          681575 0.106
 4 2021  Office & Administration          679814 0.108
 5 2019  Sales                            622579 0.097
 6 2021  Sales                            551746 0.088
 7 2019  Transportation & Material Moving 544305 0.084
 8 2021  Transportation & Material Moving 537926 0.086
 9 2021  Business & Finance               405917 0.065
10 2019  Health Practictioners            399346 0.062
# ℹ 36 more rows
…
ACS 1 year samples for 2019 and 2021 used for weighted population estimates. Occupation categories based on first 2 digits of OCCSOC occupation codes. Labels for occupations that make up less than 2% of the workers were not labeled for legibility reasons.

### Percent of Workers working from home within each Broad Occupation type ###
table <- svytable(~YEAR+did_wfh_labels+occ_2dig_labels, design = dstrata) 

table <- table %>% 
  as_tibble() %>% 
  group_by(YEAR, occ_2dig_labels)%>% 
  mutate(Prop =round(n/sum(n), digits=3)) %>%
  arrange(did_wfh_labels, -n)
table

# A tibble: 24 × 5
# Groups:   YEAR, occ_2dig_labels [12]
   YEAR  did_wfh_labels occ_2dig_labels                          n  Prop
   <chr> <chr>          <chr>                                <dbl> <dbl>
 1 2021  Did WFH        Management, Business, Science, Arts 770093 0.299
 2 2021  Did WFH        Sales & Office Jobs                 237371 0.204
 3 2019  Did WFH        Management, Business, Science, Arts 175796 0.07 
 4 2019  Did WFH        Sales & Office Jobs                  73342 0.059
 5 2021  Did WFH        Service Occupations                  66007 0.072
 6 2021  Did WFH        Production, Transportation           43561 0.051
 7 2019  Did WFH        Service Occupations                  40222 0.038
 8 2021  Did WFH        Natural Resources, Construction      23400 0.058
 9 2019  Did WFH        Production, Transportation           15008 0.017
10 2019  Did WFH        Natural Resources, Construction      13806 0.031
# ℹ 14 more rows
…
ACS 1 year samples for 2019 and 2021 used for weighted population estimates. Occupation categories based on first 2 digits of OCCSOC occupation codes. Labels for occupations that make up less than 2% of the workers were not labeled for legibility reasons.

## Proportion of all workers in each occupation cateogory.## 
table <- svytable(~YEAR+did_wfh_labels+occ_2dig_labels, design = dstrata) 

table <- table %>% 
  as_tibble() %>% 
  group_by(YEAR)%>% 
  mutate(Prop =round(n/sum(n), digits=3)) %>%
  arrange(did_wfh_labels, -n)
table

# A tibble: 24 × 5
# Groups:   YEAR [2]
   YEAR  did_wfh_labels occ_2dig_labels                          n  Prop
   <chr> <chr>          <chr>                                <dbl> <dbl>
 1 2021  Did WFH        Management, Business, Science, Arts 770093 0.13 
 2 2021  Did WFH        Sales & Office Jobs                 237371 0.04 
 3 2019  Did WFH        Management, Business, Science, Arts 175796 0.028
 4 2019  Did WFH        Sales & Office Jobs                  73342 0.012
 5 2021  Did WFH        Service Occupations                  66007 0.011
 6 2021  Did WFH        Production, Transportation           43561 0.007
 7 2019  Did WFH        Service Occupations                  40222 0.007
 8 2021  Did WFH        Natural Resources, Construction      23400 0.004
 9 2019  Did WFH        Production, Transportation           15008 0.002
10 2019  Did WFH        Natural Resources, Construction      13806 0.002
# ℹ 14 more rows
…
#ggsave("Figure3.eps", limitsize = FALSE,width = 8, height = 4, units = "in")
#ggsave("Figure3.pdf", limitsize = FALSE,width = 8, height = 4, units = "in")
ggsave("Figure3.png", limitsize = FALSE, width = 8, height = 4, units = "in")

### Detailed Occuation Types ## 
table <- svytable(~YEAR+did_wfh_labels+occ_2dig_labels_d, design = dstrata) 

table <- table %>% 
  as_tibble() %>% 
  group_by(YEAR)%>% 
  mutate(Prop =round(n/sum(n), digits=3)) %>%
  arrange(did_wfh_labels, -n)
table

# A tibble: 92 × 5
# Groups:   YEAR [2]
   YEAR  did_wfh_labels occ_2dig_labels_d                    n  Prop
   <chr> <chr>          <chr>                            <dbl> <dbl>
 1 2021  Did WFH        Management                      215100 0.036
 2 2021  Did WFH        Business & Finance              181923 0.031
 3 2021  Did WFH        Office & Administration         131368 0.022
 4 2021  Did WFH        Computer, Engineering & Science 125364 0.021
 5 2021  Did WFH        Sales                           106003 0.018
 6 2021  Did WFH        Educational Instruction          59562 0.01 
 7 2019  Did WFH        Management                       52983 0.009
 8 2021  Did WFH        Arts, Design, Entertainainment   46509 0.008
 9 2019  Did WFH        Sales                            43385 0.007
10 2019  Did WFH        Business & Finance               38141 0.006
# ℹ 82 more rows
…
ACS 1 year samples for 2019 and 2021 used for weighted population estimates. Graph interpretation: 3.6% of all worker in the labor force in 2021 were in Management occupations and worked from home. 8.3% of all workers were in management and did not work from home. Workers in Management occupations make up 11.9% of the entire workforce.

# Both years, detailed observation types
table <- svytable(~YEAR+CanWorkFromHome+occ_2dig_labels_d, design = dstrata) 

table <- table %>% 
  as_tibble() %>% 
  group_by(YEAR)%>% 
  arrange(CanWorkFromHome,-n) %>%
  mutate(Prop =round(n/sum(n), digits=3))
table

# A tibble: 138 × 5
# Groups:   YEAR [2]
   YEAR  CanWorkFromHome occ_2dig_labels_d                    n  Prop
   <chr> <chr>           <chr>                            <dbl> <dbl>
 1 2021  Can WFH         Management                      413773 0.066
 2 2019  Can WFH         Management                      388354 0.06 
 3 2019  Can WFH         Educational Instruction         356653 0.055
 4 2021  Can WFH         Educational Instruction         355765 0.057
 5 2021  Can WFH         Office & Administration         336680 0.054
 6 2019  Can WFH         Office & Administration         332739 0.052
 7 2021  Can WFH         Business & Finance              313680 0.05 
 8 2019  Can WFH         Business & Finance              304074 0.047
 9 2021  Can WFH         Computer, Engineering & Science 231152 0.037
10 2019  Can WFH         Computer, Engineering & Science 220217 0.034
# ℹ 128 more rows
…
## Proportion of all workers in each occupation cateogory.## 
table <- svytable(~YEAR+CanWorkFromHome+occ_2dig_labels, design = dstrata) 

table <- table %>% 
  as_tibble() %>% 
  group_by(YEAR)%>% 
  mutate(Prop =round(n/sum(n), digits=3)) %>%
  arrange(CanWorkFromHome, -n)
table

# A tibble: 36 × 5
# Groups:   YEAR [2]
   YEAR  CanWorkFromHome occ_2dig_labels                           n  Prop
   <chr> <chr>           <chr>                                 <dbl> <dbl>
 1 2021  Can WFH         Management, Business, Science, Arts 1567413 0.25 
 2 2019  Can WFH         Management, Business, Science, Arts 1514931 0.235
 3 2019  Can WFH         Sales & Office Jobs                  454461 0.071
 4 2021  Can WFH         Sales & Office Jobs                  443294 0.071
 5 2019  Can WFH         Service Occupations                   75187 0.012
 6 2021  Can WFH         Service Occupations                   67050 0.011
 7 2021  Can WFH         Production, Transportation             8451 0.001
 8 2019  Can WFH         Production, Transportation             6975 0.001
 9 2021  Can WFH         Natural Resources, Construction         923 0    
10 2019  Can WFH         Natural Resources, Construction         751 0    
# ℹ 26 more rows
…
