Working From Home in Illinois: - 2 Geographic Data
…
2.1 PUMA Level

PUMAs contain around 100,000 people.

For the counties that can be identified in the data (populations > 100,000 & < 200,000. 1-Year ACS have minimum of 65,000 population), the census summary tables are close but not identical to the tables calculated with the ACS sample data. “In this way more densely populated areas, like Chicago and Cook County will contain many PUMAs within their boundaries, while multiple sparsely populated entire counties, e.g., Jackson, Perry, Franklin, and Williamson, will comprise one PUMA.” - IPUMS v other Geographies

obs_perPUMA<- joined %>% 
   group_by(PUMA, YEAR) %>% 
   dplyr::summarize(weightedcount=sum(PERWT), #weighted 
                    unweightedcount = n()) %>%
  arrange(unweightedcount)
### Minimimum observations are 271 in PUMA area 03528
obs_perPUMA

# A tibble: 176 × 4
# Groups:   PUMA [88]
   PUMA   YEAR weightedcount unweightedcount
   <chr> <int>         <dbl>           <int>
 1 03528  2021         47291             267
 2 03531  2021         53217             303
 3 03528  2019         51313             304
 4 03412  2019         52151             343
 5 03531  2019         55434             353
 6 03412  2021         46112             358
 7 01105  2021         46601             359
 8 01105  2019         52644             363
 9 03532  2021         55624             382
10 03009  2019         61911             392
# ℹ 166 more rows
…
                       limits = c(0,.6),
                       n.breaks =4,
                       show.limits=TRUE,
                       nice.breaks=FALSE,

                        name = "Percent of Workers", 
                       label = scales::percent)+
  facet_wrap(~YEAR) 
 
mapPUMAboth %>% select(YEAR, PUMA, Prop, n, NAME10)

# A tibble: 176 × 5
# Groups:   YEAR, PUMA [176]
   YEAR  PUMA   Prop     n NAME10                                               
   <chr> <chr> <dbl> <dbl> <chr>                                                
 1 2019  00104 0.044  2564 Jo Daviess, Carroll, Whiteside & Lee Counties        
 2 2021  00104 0.06   3421 Jo Daviess, Carroll, Whiteside & Lee Counties        
 3 2019  00105 0.02   1288 Rock Island County                                   
 4 2021  00105 0.07   4157 Rock Island County                                   
 5 2019  00202 0.04   3142 Henry, Mercer, Henderson, Warren, Hancock, McDonough…
 6 2021  00202 0.062  4257 Henry, Mercer, Henderson, Warren, Hancock, McDonough…
 7 2019  00300 0.045  2312 Adams, Pike, Brown, Schuyler & Mason Counties        
 8 2021  00300 0.089  4092 Adams, Pike, Brown, Schuyler & Mason Counties        
 9 2019  00401 0.048  2832 Cass, Morgan, Scott, Greene, Macoupin, Jersey & Calh…
10 2021  00401 0.105  5953 Cass, Morgan, Scott, Greene, Macoupin, Jersey & Calh…
# ℹ 166 more rows
…
#   ggplot(aes(fill = pct_weight)) +
#   geom_sf(aes(geometry = geometry), color = "black")+ 
#     scale_fill_continuous(low = "gray", high = "red", name = "% of Population", label = scales::percent)+
#     theme_minimal()+
#     theme(legend.title = element_blank(), axis.text.x = element_blank(), axis.text.y = element_blank(), panel.grid.major = element_blank(), panel.grid.minor = element_blank(), legend.position="right")+
#   labs(title = "Percent of population that did NOT have access to Internet", 
#        subtitle = "Geography = PUMAs", 
#        ) +   theme(legend.title = element_blank())+
#  scale_fill_gradientn(colors = c("white", "red4"), 
#                     #   limits = c(-.1,.1),
#                        n = 7,
#                         name = "Change in Access", label = scales::percent)+
#   facet_wrap(~YEAR)

# A tibble: 525 × 15
# Groups:   YEAR, PUMA [176]
    YEAR PUMA  CINETHH     weightedcount unweightedcount pct_weight pct_noweight
   <int> <chr> <int+lbl>           <dbl>           <int>      <dbl>        <dbl>
 1  2019 00104 1 [Yes, wi…         56442             867     0.937        0.942 
 2  2019 00104 2 [Yes, wi…           769              13     0.0128       0.0141
 3  2019 00104 3 [No Inte…          3004              40     0.0499       0.0435
 4  2019 00105 1 [Yes, wi…         65179             674     0.948        0.945 
 5  2019 00105 2 [Yes, wi…          1459              15     0.0212       0.0210
 6  2019 00105 3 [No Inte…          2107              24     0.0306       0.0337
 7  2019 00202 1 [Yes, wi…         72984            1177     0.899        0.920 
 8  2019 00202 2 [Yes, wi…          2502              28     0.0308       0.0219
 9  2019 00202 3 [No Inte…          5705              74     0.0703       0.0579
10  2019 00300 1 [Yes, wi…         48548             749     0.916        0.910 
# ℹ 515 more rows
# ℹ 8 more variables: STATEFP10 <chr>, AFFGEOID10 <chr>, GEOID10 <chr>,
#   NAME10 <chr>, LSAD10 <chr>, ALAND10 <dbl>, AWATER10 <dbl>,
#   geometry <POLYGON [°]>
…
Code

### Access to Hi speed internet ###

# from joined dataframe. Not using survey objects or survey package
mapPUMAboth <- joined %>% 
   group_by(county_pop_type, YEAR, PUMA, CIHISPEED) %>% 
   dplyr::summarize(weightedcount=sum(PERWT), #weighted 
                    unweightedcount = n()) %>% 
   mutate(pct_weight = weightedcount/sum(weightedcount), 
          pct_noweight = unweightedcount/sum(unweightedcount))%>%
  full_join(pumasIL, by = c("PUMA" = "PUMACE10")) 
mapPUMAboth

# A tibble: 528 × 16
# Groups:   county_pop_type, YEAR, PUMA [176]
   county_pop_type  YEAR PUMA  CIHISPEED           weightedcount unweightedcount
   <chr>           <int> <chr> <int+lbl>                   <dbl>           <int>
 1 Rural Counties   2019 00104 10 [Yes (Cable mod…         40234             640
 2 Rural Counties   2019 00104 20 [No]                     16208             227
 3 Rural Counties   2019 00104 NA                           3773              53
 4 Rural Counties   2019 00202 10 [Yes (Cable mod…         55484             892
 5 Rural Counties   2019 00202 20 [No]                     17500             285
 6 Rural Counties   2019 00202 NA                           8207             102
 7 Rural Counties   2019 00300 10 [Yes (Cable mod…         39516             615
 8 Rural Counties   2019 00300 20 [No]                      9032             134
 9 Rural Counties   2019 00300 NA                           4440              74
10 Rural Counties   2019 00401 10 [Yes (Cable mod…         39087             616
# ℹ 518 more rows
# ℹ 10 more variables: pct_weight <dbl>, pct_noweight <dbl>, STATEFP10 <chr>,
#   AFFGEOID10 <chr>, GEOID10 <chr>, NAME10 <chr>, LSAD10 <chr>, ALAND10 <dbl>,
#   AWATER10 <dbl>, geometry <POLYGON [°]>
…
Figure2a
# ggsave("Figure2a.eps", limitsize = FALSE,width = 8, height = 4, units = "in")
# ggsave("Figure2a.pdf", limitsize = FALSE,width = 8, height = 4, units = "in")
ggsave("Figure2a.png", limitsize = FALSE, width = 8, height = 4, units = "in")

Figure2b
# ggsave("Figure2b.eps", limitsize = FALSE,width = 8, height = 4, units = "in")
# ggsave("Figure2b.pdf", limitsize = FALSE,width = 8, height = 4, units = "in")
ggsave("Figure2b.png", limitsize = FALSE, width = 8, height = 4, units = "in")

# A tibble: 198 × 17
# Groups:   county_pop_type, YEAR, countyFIP [122]
   county_pop_type  YEAR countyFIP CanWorkFromHome weightedcount unweightedcount
   <chr>           <int> <chr>     <chr>                   <dbl>           <int>
 1 Rural Counties   2019 000       Can WFH                283675            3884
 2 Rural Counties   2019 000       No WFH                 739438           10414
 3 Rural Counties   2019 000       Some WFH               115853            1555
 4 Rural Counties   2021 000       Can WFH                272115            3811
 5 Rural Counties   2021 000       No WFH                 704343            9938
 6 Rural Counties   2021 000       Some WFH               109775            1444
 7 Urban Counties   2019 019       Can WFH                 40021             394
 8 Urban Counties   2019 019       No WFH                  51164             461
 9 Urban Counties   2019 019       Some WFH                11628             107
10 Urban Counties   2019 031       Can WFH                912178            8025
# ℹ 188 more rows
# ℹ 11 more variables: pct_weight <dbl>, pct_noweight <dbl>, STATEFP <chr>,
#   COUNTYNS <chr>, AFFGEOID <chr>, GEOID <chr>, NAME <chr>, LSAD <chr>,
#   ALAND <dbl>, AWATER <dbl>, geometry <MULTIPOLYGON [°]>
…
 # filter(CanWorkFromHome != "NA" )%>% # create percentages withing missing values included. aka valid percent.
   group_by(county_pop_type, YEAR, countyFIP) %>% 
   dplyr::summarize(weightedcount=sum(PERWT), #weighted 
                    unweightedcount = n(),
                    mean_telework = mean(teleworkable, na.rm=TRUE, weight = PERWT)
                    ) %>% 
   mutate(pct_weight = weightedcount/sum(weightedcount), 
          pct_noweight = unweightedcount/sum(unweightedcount)) %>%
  full_join(countyIL, by = c("countyFIP" = "COUNTYFP"))  %>%
    mutate(mean_telework = ifelse(is.na(county_pop_type), 0.2941470, mean_telework))
 #  mutate(pct_weight = ifelse(is.na(county_pop_type), 0.09237573, pct_weight))# %>%
 # mutate(did_wfh_labels = ifelse(is.na(did_wfh_labels),"Rural", did_wfh_labels))
mapdataboth

# A tibble: 122 × 17
# Groups:   county_pop_type, YEAR [5]
   county_pop_type  YEAR countyFIP weightedcount unweightedcount mean_telework
   <chr>           <int> <chr>             <dbl>           <int>         <dbl>
 1 Rural Counties   2019 000             1138966           15853         0.299
 2 Rural Counties   2021 000             1086233           15193         0.303
 3 Urban Counties   2019 019              102813             962         0.475
 4 Urban Counties   2019 031             2675835           21136         0.464
 5 Urban Counties   2019 037               56890             554         0.333
 6 Urban Counties   2019 043              501831            4983         0.503
 7 Urban Counties   2019 089              282752            1899         0.391
 8 Urban Counties   2019 091               52812             620         0.277
 9 Urban Counties   2019 097              357036            3295         0.500
10 Urban Counties   2019 099               52977             757         0.236
# ℹ 112 more rows
# ℹ 11 more variables: pct_weight <dbl>, pct_noweight <dbl>, STATEFP <chr>,
#   COUNTYNS <chr>, AFFGEOID <chr>, GEOID <chr>, NAME <chr>, LSAD <chr>,
#   ALAND <dbl>, AWATER <dbl>, geometry <MULTIPOLYGON [°]>
…
