Work From Home: Who Can and Who Does?
…
# State worked in:
#0=NA, 17=Illinois

# ipums_var_desc(data, PWSTATE2)

data <- data %>% 
  mutate(PWSTATE2_clean = as_factor(lbl_na_if(PWSTATE2, ~.val %in% c(0))))

data %>% 
  group_by(PWSTATE2) %>%
  dplyr::summarize(n=sum(PERWT)) %>% #number of people that match that observation
  mutate(pct = n/sum(n)) %>% 
  arrange(desc(pct))

# A tibble: 59 x 3
          PWSTATE2       n      pct
         <int+lbl>   <dbl>    <dbl>
 1  0 [N/A]        6673403 0.520   
 2 17 [Illinois]   5936960 0.463   
 3 29 [Missouri]     82454 0.00643 
 4 18 [Indiana]      34228 0.00267 
 5 19 [Iowa]         33713 0.00263 
 6 55 [Wisconsin]    30743 0.00240 
 7 21 [Kentucky]      4744 0.000370
 8 26 [Michigan]      2779 0.000217
 9  6 [California]    2210 0.000172
10 48 [Texas]         1967 0.000153
# ... with 49 more rows

# postCOVID primary location of workplace
data %>% 
  filter(MULTYEAR > 2019) %>%
  group_by(as_factor(PWSTATE2_clean)) %>%
 dplyr::summarize(n=sum(PERWT)) %>% 
  mutate(pct = round(n/sum(n), digits = 2)) %>% 
  arrange(desc(pct))

# A tibble: 52 x 3
   `as_factor(PWSTATE2_clean)`       n   pct
   <fct>                         <dbl> <dbl>
 1 <NA>                        2725195  0.53
 2 Illinois                    2337304  0.45
 3 Missouri                      28211  0.01
 4 Alabama                          38  0   
 5 Alaska                           15  0   
 6 Arizona                         341  0   
 7 Arkansas                         43  0   
 8 California                      516  0   
 9 Colorado                         99  0   
10 Delaware                          1  0   
# ... with 42 more rows

# preCOVID primary location of workplace 
data %>% 
  filter (MULTYEAR<=2019) %>%
  group_by(as_factor(PWSTATE2)) %>%
  dplyr::summarize(n=sum(PERWT)) %>% 
  mutate(pct = round(n/sum(n), digits = 2 ) ) %>% 
  arrange(desc(pct))

# A tibble: 56 x 3
   `as_factor(PWSTATE2)`       n   pct
   <fct>                   <dbl> <dbl>
 1 N/A                   3948208  0.51
 2 Illinois              3599656  0.47
 3 Missouri                54243  0.01
 4 Alabama                   201  0   
 5 Arizona                   344  0   
 6 Arkansas                  160  0   
 7 California               1694  0   
 8 Colorado                  221  0   
 9 Connecticut               171  0   
10 Delaware                   49  0   
# ... with 46 more rows
…
topline(data, INCTOT, weight = PERWT)

# A tibble: 18,422 x 5
   Response                   Frequency Percent `Valid Percent` `Cumulative Pe~`
   <fct>                          <dbl>   <dbl>           <dbl>            <dbl>
 1 1 or break even (2000, 20~        87 1.32e-3        0.00132           0.00132
 2 4                                 65 9.86e-4        0.000986          0.00231
 3 10                               235 3.57e-3        0.00357           0.00587
 4 20                               172 2.61e-3        0.00261           0.00848
 5 21                               210 3.19e-3        0.00319           0.0117 
 6 22                                41 6.22e-4        0.000622          0.0123 
 7 30                               234 3.55e-3        0.00355           0.0158 
 8 32                               123 1.87e-3        0.00187           0.0177 
 9 33                                96 1.46e-3        0.00146           0.0192 
10 40                                42 6.37e-4        0.000637          0.0198 
# ... with 18,412 more rows
…
topline(data, INCEARN, weight = PERWT)

# A tibble: 5,965 x 5
   Response Frequency   Percent `Valid Percent` `Cumulative Percent`
   <fct>        <dbl>     <dbl>           <dbl>                <dbl>
 1 -7880           22 0.000334        0.000334              0.000334
 2 -7065            4 0.0000607       0.0000607             0.000395
 3 -6582           24 0.000364        0.000364              0.000759
 4 -6465           27 0.000410        0.000410              0.00117 
 5 -6042           25 0.000379        0.000379              0.00155 
 6 -5935           17 0.000258        0.000258              0.00181 
 7 -5718           18 0.000273        0.000273              0.00208 
 8 -5338           11 0.000167        0.000167              0.00225 
 9 -5305           25 0.000379        0.000379              0.00263 
10 -5000           12 0.000182        0.000182              0.00281 
# ... with 5,955 more rows
…
