Work From Home: Who Can and Who Does?
…
# ipums_var_desc(data, PWSTATE2)

data <- data %>% 
  mutate(PWSTATE2_clean = as_factor(lbl_na_if(PWSTATE2, ~.val %in% c(0))))

data %>% 
  group_by(PWSTATE2) %>%
  dplyr::summarize(n=sum(PERWT)) %>% #number of people that match that observation
  mutate(pct = n/sum(n)) %>% 
  arrange(desc(pct))

# A tibble: 59 x 3
          PWSTATE2       n      pct
         <int+lbl>   <dbl>    <dbl>
 1  0 [N/A]        6618007 0.518   
 2 17 [Illinois]   5933809 0.465   
 3 29 [Missouri]     87606 0.00686 
 4 18 [Indiana]      34843 0.00273 
 5 19 [Iowa]         32936 0.00258 
 6 55 [Wisconsin]    28751 0.00225 
 7 21 [Kentucky]      4788 0.000375
 8 26 [Michigan]      3046 0.000239
 9  6 [California]    2620 0.000205
10 48 [Texas]         2159 0.000169
# ... with 49 more rows
…
